{
  "id": 1,
  "title": "Docker Monitoring",
  "originalTitle": "Docker Monitoring",
  "tags": [],
  "style": "dark",
  "timezone": "browser",
  "editable": true,
  "hideControls": false,
  "sharedCrosshair": false,
  "rows": [
    {
      "collapse": false,
      "editable": true,
      "height": "250px",
      "panels": [
        {
          "aliasColors": {
            "FS Limit": "#F9934E",
            "FS Usage": "#E0F9D7"
          },
          "bars": false,
          "datasource": null,
          "editable": true,
          "error": false,
          "fill": 1,
          "grid": {
            "leftLogBase": 1,
            "leftMax": null,
            "leftMin": null,
            "rightLogBase": 1,
            "rightMax": null,
            "rightMin": null,
            "threshold1": null,
            "threshold1Color": "rgba(216, 200, 27, 0.27)",
            "threshold2": null,
            "threshold2Color": "rgba(234, 112, 112, 0.22)"
          },
          "id": 4,
          "legend": {
            "avg": false,
            "current": false,
            "max": false,
            "min": false,
            "show": true,
            "total": false,
            "values": false
          },
          "lines": true,
          "linewidth": 2,
          "links": [],
          "nullPointMode": "connected",
          "percentage": false,
          "pointradius": 5,
          "points": false,
          "renderer": "flot",
          "seriesOverrides": [],
          "span": 6,
          "stack": false,
          "steppedLine": false,
          "targets": [
            {
              "alias": "FS Limit",
              "column": "fs_limit",
              "dsType": "influxdb",
              "function": "mean",
              "groupBy": [
                {
                  "params": [
                    "$interval"
                  ],
                  "type": "time"
                },
                {
                  "type": "tag",
                  "params": [
                    "container_name"
                  ]
                },
                {
                  "params": [
                    "null"
                  ],
                  "type": "fill"
                }
              ],
              "query": "SELECT mean(\"value\") FROM \"fs_limit\" WHERE $timeFilter GROUP BY time($interval), \"container_name\" fill(null)",
              "resultFormat": "time_series",
              "select": [
                [
                  {
                    "params": [
                      "value"
                    ],
                    "type": "field"
                  },
                  {
                    "params": [],
                    "type": "mean"
                  }
                ]
              ],
              "series": "stats",
              "tags": [],
              "refId": "A",
              "measurement": "fs_limit"
            },
            {
              "alias": "FS Usage",
              "column": "fs_usage",
              "function": "mean",
              "query": "SELECT mean(\"value\") FROM \"fs_usage\" WHERE $timeFilter GROUP BY time($interval), \"container_name\" fill(null)",
              "series": "stats",
              "target": "",
              "refId": "A",
              "dsType": "influxdb",
              "resultFormat": "time_series",
              "tags": [],
              "groupBy": [
                {
                  "type": "time",
                  "params": [
                    "$interval"
                  ]
                },
                {
                  "type": "tag",
                  "params": [
                    "container_name"
                  ]
                },
                {
                  "type": "fill",
                  "params": [
                    "null"
                  ]
                }
              ],
              "select": [
                [
                  {
                    "type": "field",
                    "params": [
                      "value"
                    ]
                  },
                  {
                    "type": "mean",
                    "params": []
                  }
                ]
              ],
              "measurement": "fs_usage"
            }
          ],
          "timeFrom": null,
          "timeShift": null,
          "title": "Filesystem Limit / Usage",
          "tooltip": {
            "shared": true,
            "value_type": "cumulative"
          },
          "type": "graph",
          "x-axis": true,
          "y-axis": true,
          "y_formats": [
            "gbytes",
            "gbytes"
          ]
        },
        {
          "aliasColors": {},
          "bars": false,
          "datasource": "influxdb",
          "decimals": null,
          "editable": true,
          "error": false,
          "fill": 1,
          "grid": {
            "leftLogBase": 1,
            "leftMax": null,
            "leftMin": null,
            "rightLogBase": 1,
            "rightMax": null,
            "rightMin": null,
            "threshold1": null,
            "threshold1Color": "rgba(216, 200, 27, 0.27)",
            "threshold2": null,
            "threshold2Color": "rgba(234, 112, 112, 0.22)"
          },
          "id": 1,
          "interval": "",
          "leftYAxisLabel": "CPU time/sec",
          "legend": {
            "avg": false,
            "current": false,
            "max": false,
            "min": false,
            "show": true,
            "total": false,
            "values": false
          },
          "lines": true,
          "linewidth": 2,
          "links": [],
          "nullPointMode": "null",
          "percentage": false,
          "pointradius": 5,
          "points": false,
          "renderer": "flot",
          "seriesOverrides": [],
          "span": 6,
          "stack": false,
          "steppedLine": true,
          "targets": [
            {
              "alias": "",
              "column": "cpu_cumulative_usage",
              "dsType": "influxdb",
              "function": "derivative",
              "groupBy": [
                {
                  "params": [
                    "$interval"
                  ],
                  "type": "time"
                },
                {
                  "type": "tag",
                  "params": [
                    "container_name"
                  ]
                },
                {
                  "params": [
                    "null"
                  ],
                  "type": "fill"
                }
              ],
              "groupby_field": "container_name",
              "interval": "2s",
              "query": "SELECT mean(\"value\") FROM \"cpu_usage_total\" WHERE $timeFilter GROUP BY time($interval), \"container_name\" fill(null)",
              "resultFormat": "time_series",
              "select": [
                [
                  {
                    "params": [
                      "value"
                    ],
                    "type": "field"
                  },
                  {
                    "params": [],
                    "type": "mean"
                  }
                ]
              ],
              "series": "stats",
              "tags": [],
              "refId": "A",
              "rawQuery": false,
              "hide": false,
              "measurement": "cpu_usage_total"
            }
          ],
          "timeFrom": null,
          "timeShift": null,
          "title": "CPU Usage",
          "tooltip": {
            "shared": true,
            "value_type": "cumulative"
          },
          "type": "graph",
          "x-axis": true,
          "y-axis": true,
          "y_formats": [
            "ns",
            "short"
          ]
        }
      ],
      "title": "Row"
    },
    {
      "collapse": false,
      "editable": true,
      "height": "250px",
      "panels": [
        {
          "aliasColors": {},
          "bars": false,
          "datasource": null,
          "decimals": null,
          "editable": true,
          "error": false,
          "fill": 1,
          "grid": {
            "leftLogBase": 1,
            "leftMax": null,
            "leftMin": null,
            "rightLogBase": 1,
            "rightMax": null,
            "rightMin": null,
            "threshold1": null,
            "threshold1Color": "rgba(216, 200, 27, 0.27)",
            "threshold2": null,
            "threshold2Color": "rgba(234, 112, 112, 0.22)"
          },
          "id": 2,
          "legend": {
            "avg": false,
            "current": false,
            "max": false,
            "min": false,
            "show": true,
            "total": false,
            "values": false
          },
          "lines": true,
          "linewidth": 2,
          "links": [],
          "nullPointMode": "connected",
          "percentage": false,
          "pointradius": 5,
          "points": false,
          "renderer": "flot",
          "rightYAxisLabel": "",
          "seriesOverrides": [],
          "span": 6,
          "stack": false,
          "steppedLine": false,
          "targets": [
            {
              "alias": "",
              "column": "memory_usage",
              "dsType": "influxdb",
              "function": "mean",
              "groupBy": [
                {
                  "params": [
                    "$interval"
                  ],
                  "type": "time"
                },
                {
                  "type": "tag",
                  "params": [
                    "container_name"
                  ]
                },
                {
                  "params": [
                    "null"
                  ],
                  "type": "fill"
                }
              ],
              "groupby_field": "container_name",
              "query": "SELECT mean(\"value\") FROM \"memory_usage\" WHERE $timeFilter GROUP BY time($interval), \"container_name\" fill(null)",
              "resultFormat": "time_series",
              "select": [
                [
                  {
                    "params": [
                      "value"
                    ],
                    "type": "field"
                  },
                  {
                    "params": [],
                    "type": "mean"
                  }
                ]
              ],
              "series": "stats",
              "tags": [],
              "refId": "A",
              "measurement": "memory_usage",
              "rawQuery": false,
              "hide": false
            }
          ],
          "timeFrom": null,
          "timeShift": null,
          "title": "Memory Usage",
          "tooltip": {
            "shared": true,
            "value_type": "cumulative"
          },
          "type": "graph",
          "x-axis": true,
          "y-axis": true,
          "y_formats": [
            "bytes",
            "bytes"
          ]
        },
        {
          "aliasColors": {
            "TX": "#890F02"
          },
          "bars": false,
          "datasource": null,
          "editable": true,
          "error": false,
          "fill": 1,
          "grid": {
            "leftLogBase": 1,
            "leftMax": null,
            "leftMin": null,
            "rightLogBase": 1,
            "rightMax": null,
            "rightMin": null,
            "threshold1": null,
            "threshold1Color": "rgba(216, 200, 27, 0.27)",
            "threshold2": null,
            "threshold2Color": "rgba(234, 112, 112, 0.22)"
          },
          "id": 3,
          "legend": {
            "avg": true,
            "current": false,
            "max": false,
            "min": false,
            "show": true,
            "total": false,
            "values": true,
            "alignAsTable": false,
            "rightSide": false
          },
          "lines": true,
          "linewidth": 2,
          "links": [],
          "nullPointMode": "connected",
          "percentage": false,
          "pointradius": 5,
          "points": false,
          "renderer": "flot",
          "seriesOverrides": [],
          "span": 6,
          "stack": false,
          "steppedLine": false,
          "targets": [
            {
              "alias": "",
              "column": "tx_bytes",
              "dsType": "influxdb",
              "function": "last",
              "groupBy": [
                {
                  "params": [
                    "$interval"
                  ],
                  "type": "time"
                },
                {
                  "type": "tag",
                  "params": [
                    "container_name"
                  ]
                },
                {
                  "params": [
                    "null"
                  ],
                  "type": "fill"
                }
              ],
              "query": "SELECT mean(\"value\") FROM \"tx_bytes\" WHERE $timeFilter GROUP BY time($interval), \"container_name\" fill(null)",
              "resultFormat": "time_series",
              "select": [
                [
                  {
                    "params": [
                      "value"
                    ],
                    "type": "field"
                  },
                  {
                    "params": [],
                    "type": "mean"
                  }
                ]
              ],
              "series": "stats",
              "tags": [],
              "refId": "A",
              "measurement": "tx_bytes"
            }
          ],
          "timeFrom": null,
          "timeShift": null,
          "title": "Network Traffic TX",
          "tooltip": {
            "shared": true,
            "value_type": "cumulative"
          },
          "type": "graph",
          "x-axis": true,
          "y-axis": true,
          "y_formats": [
            "Bps",
            "Bps"
          ]
        }
      ],
      "title": "New row"
    }
  ],
  "time": {
    "from": "now-15m",
    "to": "now"
  },
  "timepicker": {
    "now": true,
    "refresh_intervals": [
      "5s",
      "10s",
      "30s",
      "1m",
      "5m",
      "15m",
      "30m",
      "1h",
      "2h",
      "1d"
    ],
    "time_options": [
      "5m",
      "15m",
      "1h",
      "6h",
      "12h",
      "24h",
      "2d",
      "7d",
      "30d"
    ]
  },
  "templating": {
    "list": []
  },
  "annotations": {
    "list": []
  },
  "refresh": false,
  "schemaVersion": 8,
  "version": 23,
  "links": []
}